6 Tutorial: Advanced data management | Continuing education: R
…
With these restrictions set in place, these two datasets include 1,169 unique journalists. The rookies are made up of 433 journalists and the veterans make up 853. 117 journalists are being classified as BOTH rookie AND veteran, i.e. have been counted twice. This means we are dealing with: 433 + 853 - 117 = 1,169.

Now, let’s say you want to merge these datasets back together for some comparative analysis. dplyr offers you different types of joins for this exact purpose. Let’s explore them!

6.4.1 inner_join

This is like an overly correct librarian. It only takes rows that
have matching keys in both datasets, otherwise it will drop the
rows.

inner_joined <- inner_join(rookies, veterans, by = "case_id")

inner_joined

## # A tibble: 117 × 31
##    country.x   reach.x       employment.x temp_contract.x autonomy_selection.x
##    <fct>       <fct>         <chr>        <fct>                          <dbl>
##  1 Germany     National      Full-time    Permanent                          5
##  2 Denmark     National      Full-time    Permanent                          3
##  3 UK          Regional      Full-time    Permanent                          3
##  4 UK          Transnational Full-time    Permanent                          4
##  5 UK          Regional      Full-time    Permanent                          4
##  6 Germany     Local         Full-time    Permanent                          4
##  7 UK          Regional      Full-time    Permanent                          4
##  8 Switzerland Regional      Freelancer   <NA>                               2
##  9 Denmark     Regional      Full-time    Temporary                          3
## 10 Austria     National      Full-time    Permanent                          3
## # ℹ 107 more rows
## # ℹ 26 more variables: autonomy_emphasis.x <dbl>, ethics_1.x <dbl>,
## #   ethics_2.x <dbl>, ethics_3.x <dbl>, ethics_4.x <dbl>,
## #   work_experience.x <dbl>, trust_parliament.x <dbl>,
## #   trust_government.x <dbl>, trust_parties.x <dbl>, trust_politicians.x <dbl>,
## #   case_id <int>, country.y <fct>, reach.y <fct>, employment.y <chr>,
## #   temp_contract.y <fct>, autonomy_selection.y <dbl>, …

6.4.2 left_join

This is like a fan of the first dataset. It takes all rows from the
first dataset and the matched rows from the second dataset.

left_joined <- left_join(rookies, veterans, by = "case_id")

left_joined

## # A tibble: 433 × 31
##    country.x   reach.x       employment.x temp_contract.x autonomy_selection.x
##    <fct>       <fct>         <chr>        <fct>                          <dbl>
##  1 Germany     National      Full-time    Permanent                          5
##  2 Germany     National      Full-time    Permanent                          3
##  3 Switzerland Regional      Full-time    Permanent                          4
##  4 Switzerland Local         Part-time    Permanent                          4
##  5 Denmark     National      Full-time    Permanent                          3
##  6 Denmark     National      Full-time    Permanent                          2
##  7 Austria     Local         Full-time    Permanent                          5
##  8 UK          Regional      Full-time    Permanent                          3
##  9 UK          Transnational Full-time    Permanent                          4
## 10 UK          Transnational Full-time    Permanent                          4
## # ℹ 423 more rows
## # ℹ 26 more variables: autonomy_emphasis.x <dbl>, ethics_1.x <dbl>,
## #   ethics_2.x <dbl>, ethics_3.x <dbl>, ethics_4.x <dbl>,
## #   work_experience.x <dbl>, trust_parliament.x <dbl>,
## #   trust_government.x <dbl>, trust_parties.x <dbl>, trust_politicians.x <dbl>,
## #   case_id <int>, country.y <fct>, reach.y <fct>, employment.y <chr>,
## #   temp_contract.y <fct>, autonomy_selection.y <dbl>, …

6.4.3 right_join

This is like a fan of the second dataset. It takes all rows from the
second dataset and the matched rows from the first dataset.

right_joined <- right_join(rookies, veterans, by = "case_id")
# Pro tip: you can use the argument `by = your_column_here` to match the two datsets based on a specific column, e.g. case id

right_joined

## # A tibble: 853 × 31
##    country.x   reach.x       employment.x temp_contract.x autonomy_selection.x
##    <fct>       <fct>         <chr>        <fct>                          <dbl>
##  1 Germany     National      Full-time    Permanent                          5
##  2 Denmark     National      Full-time    Permanent                          3
##  3 UK          Regional      Full-time    Permanent                          3
##  4 UK          Transnational Full-time    Permanent                          4
##  5 UK          Regional      Full-time    Permanent                          4
##  6 Germany     Local         Full-time    Permanent                          4
##  7 UK          Regional      Full-time    Permanent                          4
##  8 Switzerland Regional      Freelancer   <NA>                               2
##  9 Denmark     Regional      Full-time    Temporary                          3
## 10 Austria     National      Full-time    Permanent                          3
## # ℹ 843 more rows
## # ℹ 26 more variables: autonomy_emphasis.x <dbl>, ethics_1.x <dbl>,
## #   ethics_2.x <dbl>, ethics_3.x <dbl>, ethics_4.x <dbl>,
## #   work_experience.x <dbl>, trust_parliament.x <dbl>,
## #   trust_government.x <dbl>, trust_parties.x <dbl>, trust_politicians.x <dbl>,
## #   case_id <int>, country.y <fct>, reach.y <fct>, employment.y <chr>,
## #   temp_contract.y <fct>, autonomy_selection.y <dbl>, …

6.4.4 full_join

This is like a hoarder. It takes all rows and throws in missings for
variables that are not part of both datasets.

full_joined <- full_join(rookies, veterans, by = "case_id")
# Pro tip: you can use the argument `by = your_column_here` to match the two datsets based on a specific column, e.g. case id

full_joined

## # A tibble: 1,169 × 31
##    country.x   reach.x       employment.x temp_contract.x autonomy_selection.x
##    <fct>       <fct>         <chr>        <fct>                          <dbl>
##  1 Germany     National      Full-time    Permanent                          5
##  2 Germany     National      Full-time    Permanent                          3
##  3 Switzerland Regional      Full-time    Permanent                          4
##  4 Switzerland Local         Part-time    Permanent                          4
##  5 Denmark     National      Full-time    Permanent                          3
##  6 Denmark     National      Full-time    Permanent                          2
##  7 Austria     Local         Full-time    Permanent                          5
##  8 UK          Regional      Full-time    Permanent                          3
##  9 UK          Transnational Full-time    Permanent                          4
## 10 UK          Transnational Full-time    Permanent                          4
## # ℹ 1,159 more rows
## # ℹ 26 more variables: autonomy_emphasis.x <dbl>, ethics_1.x <dbl>,
## #   ethics_2.x <dbl>, ethics_3.x <dbl>, ethics_4.x <dbl>,
## #   work_experience.x <dbl>, trust_parliament.x <dbl>,
## #   trust_government.x <dbl>, trust_parties.x <dbl>, trust_politicians.x <dbl>,
## #   case_id <int>, country.y <fct>, reach.y <fct>, employment.y <chr>,
## #   temp_contract.y <fct>, autonomy_selection.y <dbl>, …
…
You might have noticed that when you’re using dplyr to join two datasets, .x and .y suffixes are added to any columns that have the same names in both datasets. For example, if we join using the case_id variable, all other variables in the resulting combined dataset will be named something like country.x and country.y. The .x and .y suffixes differentiate the country columns from the rookies dataset and the veterans dataset, respectively.

However, if you’re certain that columns with the same name in both datasets also contain the same values, or if you simply don’t want to retain both versions in the output, there are a couple of approaches to prevent or remove the duplicate columns with the .x and .y suffixes:

1. Using the by argument:
The by argument in the join functions lets you specify which columns to join by. By creating a character vector of the column names in your data frames, you can provide this column name vector to the by argument. This way, you’re specifying to join on all columns in your data frames. Since the column names and values are identical in both data frames, dplyr won’t create the duplicate columns with .x and .y suffixes.

column_names <- colnames(rookies) # colnames() grabs the column names from the rookies data frame and turns them into a character vector

full_joined <- full_join(rookies, veterans, by = column_names)

full_joined

## # A tibble: 1,169 × 16
##    country   reach employment temp_contract autonomy_selection autonomy_emphasis
##    <fct>     <fct> <chr>      <fct>                      <dbl>             <dbl>
##  1 Germany   Nati… Full-time  Permanent                      5                 4
##  2 Germany   Nati… Full-time  Permanent                      3                 4
##  3 Switzerl… Regi… Full-time  Permanent                      4                 4
##  4 Switzerl… Local Part-time  Permanent                      4                 5
##  5 Denmark   Nati… Full-time  Permanent                      3                 3
##  6 Denmark   Nati… Full-time  Permanent                      2                 4
##  7 Austria   Local Full-time  Permanent                      5                 5
##  8 UK        Regi… Full-time  Permanent                      3                 4
##  9 UK        Tran… Full-time  Permanent                      4                 5
## 10 UK        Tran… Full-time  Permanent                      4                 4
## # ℹ 1,159 more rows
## # ℹ 10 more variables: ethics_1 <dbl>, ethics_2 <dbl>, ethics_3 <dbl>,
## #   ethics_4 <dbl>, work_experience <dbl>, trust_parliament <dbl>,
## #   trust_government <dbl>, trust_parties <dbl>, trust_politicians <dbl>,
## #   case_id <int>

You receive only 16 columns in your combined data set. This is the most elegant solution.

2. Renaming .x columns and dropping .y columns:
Using the knowledge that you’ll acquire in the next few tutorials, you could also rename all the .x columns in your combined data set and delete all .y columns.

inner_joined <- inner_joined %>%
  rename_with(~ gsub("\\.x$", "", .), everything()) %>% # replaces all column endings ".x" with nothing: ""
  select(-matches("\\.y$")) # deselects all columns that end with ".y"

inner_joined

## # A tibble: 117 × 16
##    country   reach employment temp_contract autonomy_selection autonomy_emphasis
##    <fct>     <fct> <chr>      <fct>                      <dbl>             <dbl>
##  1 Germany   Nati… Full-time  Permanent                      5                 4
##  2 Denmark   Nati… Full-time  Permanent                      3                 3
##  3 UK        Regi… Full-time  Permanent                      3                 4
##  4 UK        Tran… Full-time  Permanent                      4                 4
##  5 UK        Regi… Full-time  Permanent                      4                 4
##  6 Germany   Local Full-time  Permanent                      4                 5
##  7 UK        Regi… Full-time  Permanent                      4                 4
##  8 Switzerl… Regi… Freelancer <NA>                           2                 3
##  9 Denmark   Regi… Full-time  Temporary                      3                 3
## 10 Austria   Nati… Full-time  Permanent                      3                 4
## # ℹ 107 more rows
## # ℹ 10 more variables: ethics_1 <dbl>, ethics_2 <dbl>, ethics_3 <dbl>,
## #   ethics_4 <dbl>, work_experience <dbl>, trust_parliament <dbl>,
## #   trust_government <dbl>, trust_parties <dbl>, trust_politicians <dbl>,
## #   case_id <int>

You are left with only 16 columns.

3. Drop the columns from one data frame before joining:
This is the most basic and error-prone, but quickest approach.

veterans <- veterans %>% 
  select(case_id) # drop all columns except case_id

left_joined <- left_join(rookies, veterans, by = "case_id")

left_joined

## # A tibble: 433 × 16
##    country   reach employment temp_contract autonomy_selection autonomy_emphasis
##    <fct>     <fct> <chr>      <fct>                      <dbl>             <dbl>
##  1 Germany   Nati… Full-time  Permanent                      5                 4
##  2 Germany   Nati… Full-time  Permanent                      3                 4
##  3 Switzerl… Regi… Full-time  Permanent                      4                 4
##  4 Switzerl… Local Part-time  Permanent                      4                 5
##  5 Denmark   Nati… Full-time  Permanent                      3                 3
##  6 Denmark   Nati… Full-time  Permanent                      2                 4
##  7 Austria   Local Full-time  Permanent                      5                 5
##  8 UK        Regi… Full-time  Permanent                      3                 4
##  9 UK        Tran… Full-time  Permanent                      4                 5
## 10 UK        Tran… Full-time  Permanent                      4                 4
## # ℹ 423 more rows
## # ℹ 10 more variables: ethics_1 <dbl>, ethics_2 <dbl>, ethics_3 <dbl>,
## #   ethics_4 <dbl>, work_experience <dbl>, trust_parliament <dbl>,
## #   trust_government <dbl>, trust_parties <dbl>, trust_politicians <dbl>,
## #   case_id <int>
…
Let’s say you want to analyze how work experience and autonomy selection
change over time. For this, you need to reshape the dataset into a
longer format.

long_data <- WoJ_panel %>%
  pivot_longer(
    cols = contains("_w"),
    names_to = c("variable", "wave"),
    names_pattern = "(.*)_(w\\d+)", # the symbol starts with any symbol that repeats 0 to several times until a _ is reached, followed by a "w" and at least one digit
    values_to = "value"
  )

long_data

## # A tibble: 40 × 4
##    case_id variable           wave  value
##      <int> <chr>              <chr> <dbl>
##  1     415 work_experience    w2018    24
##  2     415 work_experience    w2019    25
##  3     415 autonomy_selection w2018     3
##  4     415 autonomy_selection w2019     3
##  5     463 work_experience    w2018     5
##  6     463 work_experience    w2019     6
##  7     463 autonomy_selection w2018     4
##  8     463 autonomy_selection w2019     5
##  9     179 work_experience    w2018    26
## 10     179 work_experience    w2019    27
## # ℹ 30 more rows
…
where()

Let’s first import the full Worlds of Journalism dataset from the
tidycomm package:

WoJ <- tidycomm::WoJ

6.6.1 Selecting the last column

Use last_col() when you want to select the last column of a data frame
regardless of its name.

WoJ %>% select(last_col())

## # A tibble: 1,200 × 1
##    trust_politicians
##                <dbl>
##  1                 3
##  2                 3
##  3                 3
##  4                 3
##  5                 2
##  6                 2
##  7                 2
##  8                 3
##  9                 1
## 10                 3
## # ℹ 1,190 more rows

You can also select all columns except the last one:

WoJ %>% select(!last_col())

## # A tibble: 1,200 × 14
##    country   reach employment temp_contract autonomy_selection autonomy_emphasis
##    <fct>     <fct> <chr>      <fct>                      <dbl>             <dbl>
##  1 Germany   Nati… Full-time  Permanent                      5                 4
##  2 Germany   Nati… Full-time  Permanent                      3                 4
##  3 Switzerl… Regi… Full-time  Permanent                      4                 4
##  4 Switzerl… Local Part-time  Permanent                      4                 5
##  5 Austria   Nati… Part-time  Permanent                      4                 4
##  6 Switzerl… Local Freelancer <NA>                           4                 4
##  7 Germany   Local Full-time  Permanent                      4                 4
##  8 Denmark   Nati… Full-time  Permanent                      3                 3
##  9 Switzerl… Local Full-time  Permanent                      5                 5
## 10 Denmark   Nati… Full-time  Permanent                      2                 4
## # ℹ 1,190 more rows
## # ℹ 8 more variables: ethics_1 <dbl>, ethics_2 <dbl>, ethics_3 <dbl>,
## #   ethics_4 <dbl>, work_experience <dbl>, trust_parliament <dbl>,
## #   trust_government <dbl>, trust_parties <dbl>

6.6.2 Selecting columns that start with, end with or contain a specific string

starts_with() selects columns that start with a specific prefix:

WoJ %>% select(starts_with("ethics"))

## # A tibble: 1,200 × 4
##    ethics_1 ethics_2 ethics_3 ethics_4
##       <dbl>    <dbl>    <dbl>    <dbl>
##  1        2        3        2        1
##  2        1        2        2        1
##  3        2        4        2        1
##  4        1        3        1        2
##  5        2        3        2        1
##  6        2        4        4        3
##  7        1        3        2        2
##  8        2        4        4        4
##  9        1        2        1        3
## 10        1        4        4        4
## # ℹ 1,190 more rows

ends_with() selects columns that end with one or more specific
suffixes:

WoJ %>% select(ends_with(c("_1", "_2"))) # ends with _1 OR _2

## # A tibble: 1,200 × 2
##    ethics_1 ethics_2
##       <dbl>    <dbl>
##  1        2        3
##  2        1        2
##  3        2        4
##  4        1        3
##  5        2        3
##  6        2        4
##  7        1        3
##  8        2        4
##  9        1        2
## 10        1        4
## # ℹ 1,190 more rows

contains() selects columns that contain a specific substring:

WoJ %>% select(contains("_"))

## # A tibble: 1,200 × 12
##    temp_contract autonomy_selection autonomy_emphasis ethics_1 ethics_2 ethics_3
##    <fct>                      <dbl>             <dbl>    <dbl>    <dbl>    <dbl>
##  1 Permanent                      5                 4        2        3        2
##  2 Permanent                      3                 4        1        2        2
##  3 Permanent                      4                 4        2        4        2
##  4 Permanent                      4                 5        1        3        1
##  5 Permanent                      4                 4        2        3        2
##  6 <NA>                           4                 4        2        4        4
##  7 Permanent                      4                 4        1        3        2
##  8 Permanent                      3                 3        2        4        4
##  9 Permanent                      5                 5        1        2        1
## 10 Permanent                      2                 4        1        4        4
## # ℹ 1,190 more rows
## # ℹ 6 more variables: ethics_4 <dbl>, work_experience <dbl>,
## #   trust_parliament <dbl>, trust_government <dbl>, trust_parties <dbl>,
## #   trust_politicians <dbl>

matches() selects columns based on a regular expression pattern:

WoJ %>% select(matches("^ethics")) # ^ stands for "begins with" in regex notation

## # A tibble: 1,200 × 4
##    ethics_1 ethics_2 ethics_3 ethics_4
##       <dbl>    <dbl>    <dbl>    <dbl>
##  1        2        3        2        1
##  2        1        2        2        1
##  3        2        4        2        1
##  4        1        3        1        2
##  5        2        3        2        1
##  6        2        4        4        3
##  7        1        3        2        2
##  8        2        4        4        4
##  9        1        2        1        3
## 10        1        4        4        4
## # ℹ 1,190 more rows
…
