5 Tutorial: Data management with dplyr | Continuing education: R
…
Take the Star Wars data, for example. The original data set has 87
observations (Star Wars characters) and 14 columns / variables (traits
of these characters, e.g., birth_year, gender, and species). Yes,
14 columns is not a lot and you could get an overview of this data
without subsetting columns. Let’s take a look at the original data
frame:

library(dplyr) # load dplyr
starwars_data <- starwars # assign the pre-installed starwars data from dplyr to a source object / variable

starwars_data # print the content of the data frame to the console

## # A tibble: 87 × 14
##    name     height  mass hair_color skin_color eye_color birth_year sex   gender
##    <chr>     <int> <dbl> <chr>      <chr>      <chr>          <dbl> <chr> <chr> 
##  1 Luke Sk…    172    77 blond      fair       blue            19   male  mascu…
##  2 C-3PO       167    75 <NA>       gold       yellow         112   none  mascu…
##  3 R2-D2        96    32 <NA>       white, bl… red             33   none  mascu…
##  4 Darth V…    202   136 none       white      yellow          41.9 male  mascu…
##  5 Leia Or…    150    49 brown      light      brown           19   fema… femin…
##  6 Owen La…    178   120 brown, gr… light      blue            52   male  mascu…
##  7 Beru Wh…    165    75 brown      light      blue            47   fema… femin…
##  8 R5-D4        97    32 <NA>       white, red red             NA   none  mascu…
##  9 Biggs D…    183    84 black      light      brown           24   male  mascu…
## 10 Obi-Wan…    182    77 auburn, w… fair       blue-gray       57   male  mascu…
## # ℹ 77 more rows
## # ℹ 5 more variables: homeworld <chr>, species <chr>, films <list>,
## #   vehicles <list>, starships <list>

For the sake of practice, let’s say we only want to analyze the
species, birth_year, mass, and height of these characters. To
simplify data handling, we want to keep only the respective columns.

starwars_data %>% # define the source object
  select(name, species, birth_year, mass, height) # keep only the name, species, birth_year, mass and height column

## # A tibble: 87 × 5
##    name               species birth_year  mass height
##    <chr>              <chr>        <dbl> <dbl>  <int>
##  1 Luke Skywalker     Human         19      77    172
##  2 C-3PO              Droid        112      75    167
##  3 R2-D2              Droid         33      32     96
##  4 Darth Vader        Human         41.9   136    202
##  5 Leia Organa        Human         19      49    150
##  6 Owen Lars          Human         52     120    178
##  7 Beru Whitesun lars Human         47      75    165
##  8 R5-D4              Droid         NA      32     97
##  9 Biggs Darklighter  Human         24      84    183
## 10 Obi-Wan Kenobi     Human         57      77    182
## # ℹ 77 more rows

At the moment you have only printed the transformed data to the console.
However, most of the time we want to keep the transformed data ready for
further calculations. In this case we should assign the transformed data
into a new source object, which we can access later.

starwars_short <- starwars_data %>% # assign a new source object and define the old source object
  select(name, species, birth_year, mass, height) # keep only the name, species, birth_year, mass and height column

Let’s print the new source object, starwars_short, to the console.

starwars_short

## # A tibble: 87 × 5
##    name               species birth_year  mass height
##    <chr>              <chr>        <dbl> <dbl>  <int>
##  1 Luke Skywalker     Human         19      77    172
##  2 C-3PO              Droid        112      75    167
##  3 R2-D2              Droid         33      32     96
##  4 Darth Vader        Human         41.9   136    202
##  5 Leia Organa        Human         19      49    150
##  6 Owen Lars          Human         52     120    178
##  7 Beru Whitesun lars Human         47      75    165
##  8 R5-D4              Droid         NA      32     97
##  9 Biggs Darklighter  Human         24      84    183
## 10 Obi-Wan Kenobi     Human         57      77    182
## # ℹ 77 more rows

You can also delete columns by making a reverse selection with the -
symbol. This means that you select all columns except the one whose
name you specify.

starwars_short %>%
  select(-name) # keep all columns except the name column (i.e. delete name column)

## # A tibble: 87 × 4
##    species birth_year  mass height
##    <chr>        <dbl> <dbl>  <int>
##  1 Human         19      77    172
##  2 Droid        112      75    167
##  3 Droid         33      32     96
##  4 Human         41.9   136    202
##  5 Human         19      49    150
##  6 Human         52     120    178
##  7 Human         47      75    165
##  8 Droid         NA      32     97
##  9 Human         24      84    183
## 10 Human         57      77    182
## # ℹ 77 more rows

You can delete more than one column in one go:

starwars_short %>%
  select(-c(name, species)) # keep all columns except the name & species column (i.e. delete these columns)

## # A tibble: 87 × 3
##    birth_year  mass height
##         <dbl> <dbl>  <int>
##  1       19      77    172
##  2      112      75    167
##  3       33      32     96
##  4       41.9   136    202
##  5       19      49    150
##  6       52     120    178
##  7       47      75    165
##  8       NA      32     97
##  9       24      84    183
## 10       57      77    182
## # ℹ 77 more rows

Tip for advanced users: You can select columns and rename them at
the same time.

starwars_short %>%
  select("character" = name, "age" = birth_year) # select columns that you want to keep & rename them

## # A tibble: 87 × 2
##    character            age
##    <chr>              <dbl>
##  1 Luke Skywalker      19  
##  2 C-3PO              112  
##  3 R2-D2               33  
##  4 Darth Vader         41.9
##  5 Leia Organa         19  
##  6 Owen Lars           52  
##  7 Beru Whitesun lars  47  
##  8 R5-D4               NA  
##  9 Biggs Darklighter   24  
## 10 Obi-Wan Kenobi      57  
## # ℹ 77 more rows

5.5.2 filter()

filter() divides observations into groups depending on their values.
The name of the data frame is the source object, followed by the pipe
%>% operator. Then follow the expressions that filter the data.

Let’s only select human Star Wars characters in our transformed data set
starwars_short:

starwars_short %>%
  filter(species == "Human")

## # A tibble: 35 × 5
##    name               species birth_year  mass height
##    <chr>              <chr>        <dbl> <dbl>  <int>
##  1 Luke Skywalker     Human         19      77    172
##  2 Darth Vader        Human         41.9   136    202
##  3 Leia Organa        Human         19      49    150
##  4 Owen Lars          Human         52     120    178
##  5 Beru Whitesun lars Human         47      75    165
##  6 Biggs Darklighter  Human         24      84    183
##  7 Obi-Wan Kenobi     Human         57      77    182
##  8 Anakin Skywalker   Human         41.9    84    188
##  9 Wilhuff Tarkin     Human         64      NA    180
## 10 Han Solo           Human         29      80    180
## # ℹ 25 more rows
…
Tip for advanced users 1: You can negate filters. This means that
you keep all observations except the one that you have specified with
the != operator (read != as: is not or is unequal to). For
example, you can choose to include only non-human Star Wars characters.

starwars_short %>%
  filter(species != "Human")

## # A tibble: 48 × 5
##    name                  species        birth_year  mass height
##    <chr>                 <chr>               <dbl> <dbl>  <int>
##  1 C-3PO                 Droid                 112    75    167
##  2 R2-D2                 Droid                  33    32     96
##  3 R5-D4                 Droid                  NA    32     97
##  4 Chewbacca             Wookiee               200   112    228
##  5 Greedo                Rodian                 44    74    173
##  6 Jabba Desilijic Tiure Hutt                  600  1358    175
##  7 Yoda                  Yoda's species        896    17     66
##  8 IG-88                 Droid                  15   140    200
##  9 Bossk                 Trandoshan             53   113    190
## 10 Ackbar                Mon Calamari           41    83    180
## # ℹ 38 more rows

Alternatively, you achieve the same goal by negating the entire function
call. Negating the entire function call can be handy at times.

starwars_short %>%
  filter(!(species == "Human"))

## # A tibble: 48 × 5
##    name                  species        birth_year  mass height
##    <chr>                 <chr>               <dbl> <dbl>  <int>
##  1 C-3PO                 Droid                 112    75    167
##  2 R2-D2                 Droid                  33    32     96
##  3 R5-D4                 Droid                  NA    32     97
##  4 Chewbacca             Wookiee               200   112    228
##  5 Greedo                Rodian                 44    74    173
##  6 Jabba Desilijic Tiure Hutt                  600  1358    175
##  7 Yoda                  Yoda's species        896    17     66
##  8 IG-88                 Droid                  15   140    200
##  9 Bossk                 Trandoshan             53   113    190
## 10 Ackbar                Mon Calamari           41    83    180
## # ℹ 38 more rows

Tip for advanced users 2: You can filter for missing values (NAs)
with the is.na() function.

starwars_short %>%
  filter(is.na(birth_year))

## # A tibble: 44 × 5
##    name             species   birth_year  mass height
##    <chr>            <chr>          <dbl> <dbl>  <int>
##  1 R5-D4            Droid             NA    32     97
##  2 Jek Tono Porkins Human             NA   110    180
##  3 Arvel Crynyd     Human             NA    NA     NA
##  4 Nien Nunb        Sullustan         NA    68    160
##  5 Nute Gunray      Neimodian         NA    90    191
##  6 Roos Tarpals     Gungan            NA    82    224
##  7 Rugor Nass       Gungan            NA    NA    206
##  8 Ric Olié         <NA>              NA    NA    183
##  9 Watto            Toydarian         NA    NA    137
## 10 Sebulba          Dug               NA    40    112
## # ℹ 34 more rows

And you can negate that filter to get rid of all observation that have
missing values (NAs).

starwars_short %>%
  filter(!is.na(birth_year))

## # A tibble: 43 × 5
##    name               species birth_year  mass height
##    <chr>              <chr>        <dbl> <dbl>  <int>
##  1 Luke Skywalker     Human         19      77    172
##  2 C-3PO              Droid        112      75    167
##  3 R2-D2              Droid         33      32     96
##  4 Darth Vader        Human         41.9   136    202
##  5 Leia Organa        Human         19      49    150
##  6 Owen Lars          Human         52     120    178
##  7 Beru Whitesun lars Human         47      75    165
##  8 Biggs Darklighter  Human         24      84    183
##  9 Obi-Wan Kenobi     Human         57      77    182
## 10 Anakin Skywalker   Human         41.9    84    188
## # ℹ 33 more rows
…
But with this code, you’ll get all observations that are either
non-human (regardless of their age) OR humans who are older than 33
years old.

starwars_short %>%
  filter((species != "Human") | (birth_year > 33))

## # A tibble: 67 × 5
##    name               species birth_year  mass height
##    <chr>              <chr>        <dbl> <dbl>  <int>
##  1 C-3PO              Droid        112      75    167
##  2 R2-D2              Droid         33      32     96
##  3 Darth Vader        Human         41.9   136    202
##  4 Owen Lars          Human         52     120    178
##  5 Beru Whitesun lars Human         47      75    165
##  6 R5-D4              Droid         NA      32     97
##  7 Obi-Wan Kenobi     Human         57      77    182
##  8 Anakin Skywalker   Human         41.9    84    188
##  9 Wilhuff Tarkin     Human         64      NA    180
## 10 Chewbacca          Wookiee      200     112    228
## # ℹ 57 more rows

5.5.3 arrange()

arrange() and filter() are like two brothers: both look similar, but
they also differ in at least one essential aspect. Both functions change
the rows of the data frame, but unlike filter(), arrange() does not
select or delete rows, it only changes their order (either ascending or
descending). By default, arrange() will sort in ascending order, i.e.
from 1:100 (numeric vector) and from A:Z (character vector). arrange()
must always be applied to at least one column that is to be sorted.

starwars_short %>%
  arrange(birth_year)

## # A tibble: 87 × 5
##    name                  species birth_year  mass height
##    <chr>                 <chr>        <dbl> <dbl>  <int>
##  1 Wicket Systri Warrick Ewok           8    20       88
##  2 IG-88                 Droid         15   140      200
##  3 Luke Skywalker        Human         19    77      172
##  4 Leia Organa           Human         19    49      150
##  5 Wedge Antilles        Human         21    77      170
##  6 Plo Koon              Kel Dor       22    80      188
##  7 Biggs Darklighter     Human         24    84      183
##  8 Han Solo              Human         29    80      180
##  9 Lando Calrissian      Human         31    79      177
## 10 Boba Fett             Human         31.5  78.2    183
## # ℹ 77 more rows

To get a descending order:

starwars_short %>%
  arrange(desc(birth_year))

## # A tibble: 87 × 5
##    name                  species        birth_year  mass height
##    <chr>                 <chr>               <dbl> <dbl>  <int>
##  1 Yoda                  Yoda's species        896    17     66
##  2 Jabba Desilijic Tiure Hutt                  600  1358    175
##  3 Chewbacca             Wookiee               200   112    228
##  4 C-3PO                 Droid                 112    75    167
##  5 Dooku                 Human                 102    80    193
##  6 Qui-Gon Jinn          Human                  92    89    193
##  7 Ki-Adi-Mundi          Cerean                 92    82    198
##  8 Finis Valorum         Human                  91    NA    170
##  9 Palpatine             Human                  82    75    170
## 10 Cliegg Lars           Human                  82    NA    183
## # ℹ 77 more rows

If you specify more than one column, then subsequent columns are used to
break ties. Also note that missing values are always displayed last:

starwars_short %>%
  arrange(species, birth_year)

## # A tibble: 87 × 5
##    name            species  birth_year  mass height
##    <chr>           <chr>         <dbl> <dbl>  <int>
##  1 Ratts Tyerell   Aleena           NA    15     79
##  2 Dexter Jettster Besalisk         NA   102    198
##  3 Ki-Adi-Mundi    Cerean           92    82    198
##  4 Mas Amedda      Chagrian         NA    NA    196
##  5 Zam Wesell      Clawdite         NA    55    168
##  6 IG-88           Droid            15   140    200
##  7 R2-D2           Droid            33    32     96
##  8 C-3PO           Droid           112    75    167
##  9 R5-D4           Droid            NA    32     97
## 10 R4-P17          Droid            NA    NA     96
## # ℹ 77 more rows
…
For example, we can resize the height column to provide the body height
in m instead of cm. Let’s call that variable m_height. We’ll assign
our transformed data (with the newly created m_height column) back
into our source object (starwars_short) to keep the changes for the
future (and not just print it to the console).

starwars_short <- starwars_short %>% # assigns your source object, i.e. data, back to itself to save changes
  mutate(m_height = height / 100) # creates the new variable "m_height" and adds it to the end of the data frame

starwars_short # print the data to your console to inspect the new column

## # A tibble: 87 × 6
##    name               species birth_year  mass height m_height
##    <chr>              <chr>        <dbl> <dbl>  <int>    <dbl>
##  1 Luke Skywalker     Human         19      77    172     1.72
##  2 C-3PO              Droid        112      75    167     1.67
##  3 R2-D2              Droid         33      32     96     0.96
##  4 Darth Vader        Human         41.9   136    202     2.02
##  5 Leia Organa        Human         19      49    150     1.5 
##  6 Owen Lars          Human         52     120    178     1.78
##  7 Beru Whitesun lars Human         47      75    165     1.65
##  8 R5-D4              Droid         NA      32     97     0.97
##  9 Biggs Darklighter  Human         24      84    183     1.83
## 10 Obi-Wan Kenobi     Human         57      77    182     1.82
## # ℹ 77 more rows

Let’s calculate the BMI of the Star Wars characters with the BMI formula
and the newly created m_height variable. Save the changes to your data
frame by assigning the source object back to itself.

starwars_short <- starwars_short %>% # assigns your source object, i.e. data, back to itself to save changes
  mutate(BMI = mass / m_height^2) # creates the new variable "BMI" and adds it to the end of the data frame

starwars_short # print the data to your console to inspect the new column

## # A tibble: 87 × 7
##    name               species birth_year  mass height m_height   BMI
##    <chr>              <chr>        <dbl> <dbl>  <int>    <dbl> <dbl>
##  1 Luke Skywalker     Human         19      77    172     1.72  26.0
##  2 C-3PO              Droid        112      75    167     1.67  26.9
##  3 R2-D2              Droid         33      32     96     0.96  34.7
##  4 Darth Vader        Human         41.9   136    202     2.02  33.3
##  5 Leia Organa        Human         19      49    150     1.5   21.8
##  6 Owen Lars          Human         52     120    178     1.78  37.9
##  7 Beru Whitesun lars Human         47      75    165     1.65  27.5
##  8 R5-D4              Droid         NA      32     97     0.97  34.0
##  9 Biggs Darklighter  Human         24      84    183     1.83  25.1
## 10 Obi-Wan Kenobi     Human         57      77    182     1.82  23.2
## # ℹ 77 more rows
…
starwars_short <- starwars_short %>%
  mutate(age_cat = case_when( # "cat" is short for "categorized"
    birth_year < 20 ~ "very young",
    birth_year < 40 ~ "young",
    birth_year < 70 ~ "mid-aged",
    birth_year <= 100 ~ "old",
    birth_year > 100 ~ "very old"
  ))

starwars_short

## # A tibble: 87 × 8
##    name               species birth_year  mass height m_height   BMI age_cat   
##    <chr>              <chr>        <dbl> <dbl>  <int>    <dbl> <dbl> <chr>     
##  1 Luke Skywalker     Human         19      77    172     1.72  26.0 very young
##  2 C-3PO              Droid        112      75    167     1.67  26.9 very old  
##  3 R2-D2              Droid         33      32     96     0.96  34.7 young     
##  4 Darth Vader        Human         41.9   136    202     2.02  33.3 mid-aged  
##  5 Leia Organa        Human         19      49    150     1.5   21.8 very young
##  6 Owen Lars          Human         52     120    178     1.78  37.9 mid-aged  
##  7 Beru Whitesun lars Human         47      75    165     1.65  27.5 mid-aged  
##  8 R5-D4              Droid         NA      32     97     0.97  34.0 <NA>      
##  9 Biggs Darklighter  Human         24      84    183     1.83  25.1 young     
## 10 Obi-Wan Kenobi     Human         57      77    182     1.82  23.2 mid-aged  
## # ℹ 77 more rows
…
